Data input for teal app — dataset • teal
…
    a dataset with connected metadata

    Examples

library(random.cdisc.data)

ADSL <-  suppressWarnings(radsl(N = 600, seed = 123))

dataset("ADSL", ADSL)
#> $dataname
#> [1] "ADSL"
#> 
#> $data
#> # A tibble: 600 x 31
#>    STUDYID USUBJID SUBJID SITEID   AGE SEX   RACE  COUNTRY INVID ARM   ARMCD
#>    <chr>   <chr>   <chr>  <chr>  <int> <fct> <fct> <fct>   <chr> <fct> <fct>
#>  1 AB12345 AB1234… id-541 NGA-5     28 M     ASIAN NGA     NGA-5 B: P… ARM B
#>  2 AB12345 AB1234… id-399 CHN-4     27 F     ASIAN CHN     CHN-4 A: D… ARM A
#>  3 AB12345 AB1234… id-564 CHN-11    35 M     BLAC… CHN     CHN-… B: P… ARM B
#>  4 AB12345 AB1234… id-24  CAN-1     31 F     AMER… CAN     CAN-1 C: C… ARM C
#>  5 AB12345 AB1234… id-382 PAK-4     30 F     ASIAN PAK     PAK-4 C: C… ARM C
#>  6 AB12345 AB1234… id-463 CHN-1     25 M     BLAC… CHN     CHN-1 B: P… ARM B
#>  7 AB12345 AB1234… id-157 USA-1     34 M     WHITE USA     USA-1 A: D… ARM A
#>  8 AB12345 AB1234… id-23  BRA-3     31 M     WHITE BRA     BRA-3 C: C… ARM C
#>  9 AB12345 AB1234… id-343 USA-1     33 M     BLAC… USA     USA-1 C: C… ARM C
#> 10 AB12345 AB1234… id-373 RUS-15    32 F     WHITE RUS     RUS-… B: P… ARM B
#> # … with 590 more rows, and 20 more variables: ACTARM <fct>, ACTARMCD <fct>,
#> #   STRATA1 <fct>, STRATA2 <fct>, BMRKR1 <dbl>, BMRKR2 <fct>, ITTFL <fct>,
#> #   SAFFL <fct>, BMEASIFL <fct>, BEP01FL <fct>, RANDDT <date>, TRTSDTM <dttm>,
#> #   TRTEDTM <dttm>, EOSSTT <fct>, EOSDT <date>, EOSDY <int>, DCSREAS <fct>,
#> #   DTHDT <date>, LSTALVDT <date>, study_duration_secs <dbl>
…
