…
#>     .ncol: 38
#>     .nrow: 400
#>     .raw_data: tbl_df, tbl, data.frame
#>     .row_labels: NULL
#>     .rownames: 1 2 3 4 5 6 7 8 9 10 11 12 13 14 15 16 17 18 19 20 21 22 ...
#>     code: CodeClass, R6
#>     dataname: ADSL
#>     dataset_label: 
#>     deep_clone: function (name, value) 
#>     execute_code: function (code, vars = list()) 
#>     get_class_colnames: function (class_type = "character") 
#>     set_dataname: function (dataname) 
#>     vars: list
x$get_raw_data()
#> # A tibble: 400 x 38
#>    STUDYID USUBJID SUBJID SITEID   AGE SEX   RACE  COUNTRY DTHFL INVID INVNAM
#>    <chr>   <chr>   <chr>  <chr>  <int> <fct> <fct> <fct>   <fct> <chr> <chr> 
#>  1 AB12345 AB1234… id-128 CHN-3     32 M     ASIAN CHN     N     INV … Dr. C…
#>  2 AB12345 AB1234… id-262 CHN-15    35 M     BLAC… CHN     N     INV … Dr. C…
#>  3 AB12345 AB1234… id-378 RUS-3     30 F     ASIAN RUS     N     INV … Dr. R…
#>  4 AB12345 AB1234… id-220 CHN-11    26 F     ASIAN CHN     N     INV … Dr. C…
#>  5 AB12345 AB1234… id-267 CHN-7     40 M     ASIAN CHN     N     INV … Dr. C…
#>  6 AB12345 AB1234… id-201 CHN-15    49 M     ASIAN CHN     N     INV … Dr. C…
#>  7 AB12345 AB1234… id-45  USA-1     34 F     ASIAN USA     N     INV … Dr. U…
#>  8 AB12345 AB1234… id-261 USA-1     32 F     ASIAN USA     N     INV … Dr. U…
#>  9 AB12345 AB1234… id-173 NGA-11    24 F     BLAC… NGA     N     INV … Dr. N…
#> 10 AB12345 AB1234… id-307 CHN-1     24 M     ASIAN CHN     N     INV … Dr. C…
#> # … with 390 more rows, and 27 more variables: ARM <fct>, ARMCD <fct>,
#> #   ACTARM <fct>, ACTARMCD <fct>, REGION1 <fct>, STRATA1 <fct>, STRATA2 <fct>,
#> #   BMRKR1 <dbl>, BMRKR2 <fct>, ITTFL <fct>, SAFFL <fct>, BMEASIFL <fct>,
#> #   BEP01FL <fct>, RANDDT <date>, TRTSDTM <dttm>, TRTEDTM <dttm>, EOSSTT <fct>,
#> #   EOSDT <date>, EOSDY <int>, DCSREAS <fct>, DTHDT <date>, DTHCAUS <fct>,
#> #   DTHCAT <fct>, LDDTHELD <int>, LDDTHGR1 <fct>, LSTALVDT <date>,
#> #   study_duration_secs <dbl>
…
