Retrieve raw data — get_raw_data • teal
…
    Value

    data.frame with the raw data inserted into the R6 objects. In case of
RelationalData or cdisc_data list of data.frame can be returned
if user doesn't specify dataname (get_raw_data from all datasets).

    Examples

# RawDataset ---------
library(random.cdisc.data)
ADSL <- radsl(cached = TRUE)
ADSL_raw <- raw_dataset(x = ADSL)
get_raw_data(ADSL_raw)
#> # A tibble: 400 x 33
#>    STUDYID USUBJID SUBJID SITEID   AGE SEX   RACE  COUNTRY INVID INVNAM ARM  
#>    <chr>   <chr>   <chr>  <chr>  <int> <fct> <fct> <fct>   <chr> <chr>  <fct>
#>  1 AB12345 AB1234… id-128 CHN-3     32 M     ASIAN CHN     INV … Dr. C… A: D…
#>  2 AB12345 AB1234… id-262 CHN-15    35 M     BLAC… CHN     INV … Dr. C… C: C…
#>  3 AB12345 AB1234… id-378 RUS-3     30 F     ASIAN RUS     INV … Dr. R… C: C…
#>  4 AB12345 AB1234… id-220 CHN-11    26 F     ASIAN CHN     INV … Dr. C… B: P…
#>  5 AB12345 AB1234… id-267 CHN-7     40 M     ASIAN CHN     INV … Dr. C… B: P…
#>  6 AB12345 AB1234… id-201 CHN-15    49 M     ASIAN CHN     INV … Dr. C… C: C…
#>  7 AB12345 AB1234… id-45  USA-1     34 F     ASIAN USA     INV … Dr. U… A: D…
#>  8 AB12345 AB1234… id-261 USA-1     32 F     ASIAN USA     INV … Dr. U… B: P…
#>  9 AB12345 AB1234… id-173 NGA-11    24 F     BLAC… NGA     INV … Dr. N… C: C…
#> 10 AB12345 AB1234… id-307 CHN-1     24 M     ASIAN CHN     INV … Dr. C… B: P…
#> # … with 390 more rows, and 22 more variables: ARMCD <fct>, ACTARM <fct>,
#> #   ACTARMCD <fct>, REGION1 <fct>, STRATA1 <fct>, STRATA2 <fct>, BMRKR1 <dbl>,
#> #   BMRKR2 <fct>, ITTFL <fct>, SAFFL <fct>, BMEASIFL <fct>, BEP01FL <fct>,
#> #   RANDDT <date>, TRTSDTM <dttm>, TRTEDTM <dttm>, EOSSTT <fct>, EOSDT <date>,
#> #   EOSDY <int>, DCSREAS <fct>, DTHDT <date>, LSTALVDT <date>,
#> #   study_duration_secs <dbl>

ADSL_named <- named_dataset(dataname = "ADSL", x = ADSL)
get_raw_data(ADSL_named)
#> # A tibble: 400 x 33
#>    STUDYID USUBJID SUBJID SITEID   AGE SEX   RACE  COUNTRY INVID INVNAM ARM  
#>    <chr>   <chr>   <chr>  <chr>  <int> <fct> <fct> <fct>   <chr> <chr>  <fct>
#>  1 AB12345 AB1234… id-128 CHN-3     32 M     ASIAN CHN     INV … Dr. C… A: D…
#>  2 AB12345 AB1234… id-262 CHN-15    35 M     BLAC… CHN     INV … Dr. C… C: C…
#>  3 AB12345 AB1234… id-378 RUS-3     30 F     ASIAN RUS     INV … Dr. R… C: C…
#>  4 AB12345 AB1234… id-220 CHN-11    26 F     ASIAN CHN     INV … Dr. C… B: P…
#>  5 AB12345 AB1234… id-267 CHN-7     40 M     ASIAN CHN     INV … Dr. C… B: P…
#>  6 AB12345 AB1234… id-201 CHN-15    49 M     ASIAN CHN     INV … Dr. C… C: C…
#>  7 AB12345 AB1234… id-45  USA-1     34 F     ASIAN USA     INV … Dr. U… A: D…
#>  8 AB12345 AB1234… id-261 USA-1     32 F     ASIAN USA     INV … Dr. U… B: P…
#>  9 AB12345 AB1234… id-173 NGA-11    24 F     BLAC… NGA     INV … Dr. N… C: C…
#> 10 AB12345 AB1234… id-307 CHN-1     24 M     ASIAN CHN     INV … Dr. C… B: P…
#> # … with 390 more rows, and 22 more variables: ARMCD <fct>, ACTARM <fct>,
#> #   ACTARMCD <fct>, REGION1 <fct>, STRATA1 <fct>, STRATA2 <fct>, BMRKR1 <dbl>,
#> #   BMRKR2 <fct>, ITTFL <fct>, SAFFL <fct>, BMEASIFL <fct>, BEP01FL <fct>,
#> #   RANDDT <date>, TRTSDTM <dttm>, TRTEDTM <dttm>, EOSSTT <fct>, EOSDT <date>,
#> #   EOSDY <int>, DCSREAS <fct>, DTHDT <date>, LSTALVDT <date>,
#> #   study_duration_secs <dbl>

ADSL_relational <- as_relational(ADSL_raw,
  dataname = "ADSL",
  keys = keys(primary = c("USUBJID", "STUDYID"), foreign = NULL, parent = NULL)
)
get_raw_data(ADSL_relational)
#> # A tibble: 400 x 33
#>    STUDYID USUBJID SUBJID SITEID   AGE SEX   RACE  COUNTRY INVID INVNAM ARM  
#>    <chr>   <chr>   <chr>  <chr>  <int> <fct> <fct> <fct>   <chr> <chr>  <fct>
#>  1 AB12345 AB1234… id-128 CHN-3     32 M     ASIAN CHN     INV … Dr. C… A: D…
#>  2 AB12345 AB1234… id-262 CHN-15    35 M     BLAC… CHN     INV … Dr. C… C: C…
#>  3 AB12345 AB1234… id-378 RUS-3     30 F     ASIAN RUS     INV … Dr. R… C: C…
#>  4 AB12345 AB1234… id-220 CHN-11    26 F     ASIAN CHN     INV … Dr. C… B: P…
#>  5 AB12345 AB1234… id-267 CHN-7     40 M     ASIAN CHN     INV … Dr. C… B: P…
#>  6 AB12345 AB1234… id-201 CHN-15    49 M     ASIAN CHN     INV … Dr. C… C: C…
#>  7 AB12345 AB1234… id-45  USA-1     34 F     ASIAN USA     INV … Dr. U… A: D…
#>  8 AB12345 AB1234… id-261 USA-1     32 F     ASIAN USA     INV … Dr. U… B: P…
#>  9 AB12345 AB1234… id-173 NGA-11    24 F     BLAC… NGA     INV … Dr. N… C: C…
#> 10 AB12345 AB1234… id-307 CHN-1     24 M     ASIAN CHN     INV … Dr. C… B: P…
#> # … with 390 more rows, and 22 more variables: ARMCD <fct>, ACTARM <fct>,
#> #   ACTARMCD <fct>, REGION1 <fct>, STRATA1 <fct>, STRATA2 <fct>, BMRKR1 <dbl>,
#> #   BMRKR2 <fct>, ITTFL <fct>, SAFFL <fct>, BMEASIFL <fct>, BEP01FL <fct>,
#> #   RANDDT <date>, TRTSDTM <dttm>, TRTEDTM <dttm>, EOSSTT <fct>, EOSDT <date>,
#> #   EOSDY <int>, DCSREAS <fct>, DTHDT <date>, LSTALVDT <date>,
#> #   study_duration_secs <dbl>

# RawDatasetConnector ---------
library(random.cdisc.data)
dc <- rcd_cdisc_dataset_connector(dataname = "ADSL", fun = radsl, cached = TRUE)
load_dataset(dc)
get_raw_data(dc)
#> # A tibble: 400 x 33
#>    STUDYID USUBJID SUBJID SITEID   AGE SEX   RACE  COUNTRY INVID INVNAM ARM  
#>    <chr>   <chr>   <chr>  <chr>  <int> <fct> <fct> <fct>   <chr> <chr>  <fct>
#>  1 AB12345 AB1234… id-128 CHN-3     32 M     ASIAN CHN     INV … Dr. C… A: D…
#>  2 AB12345 AB1234… id-262 CHN-15    35 M     BLAC… CHN     INV … Dr. C… C: C…
#>  3 AB12345 AB1234… id-378 RUS-3     30 F     ASIAN RUS     INV … Dr. R… C: C…
#>  4 AB12345 AB1234… id-220 CHN-11    26 F     ASIAN CHN     INV … Dr. C… B: P…
#>  5 AB12345 AB1234… id-267 CHN-7     40 M     ASIAN CHN     INV … Dr. C… B: P…
#>  6 AB12345 AB1234… id-201 CHN-15    49 M     ASIAN CHN     INV … Dr. C… C: C…
#>  7 AB12345 AB1234… id-45  USA-1     34 F     ASIAN USA     INV … Dr. U… A: D…
#>  8 AB12345 AB1234… id-261 USA-1     32 F     ASIAN USA     INV … Dr. U… B: P…
#>  9 AB12345 AB1234… id-173 NGA-11    24 F     BLAC… NGA     INV … Dr. N… C: C…
#> 10 AB12345 AB1234… id-307 CHN-1     24 M     ASIAN CHN     INV … Dr. C… B: P…
#> # … with 390 more rows, and 22 more variables: ARMCD <fct>, ACTARM <fct>,
#> #   ACTARMCD <fct>, REGION1 <fct>, STRATA1 <fct>, STRATA2 <fct>, BMRKR1 <dbl>,
#> #   BMRKR2 <fct>, ITTFL <fct>, SAFFL <fct>, BMEASIFL <fct>, BEP01FL <fct>,
#> #   RANDDT <date>, TRTSDTM <dttm>, TRTEDTM <dttm>, EOSSTT <fct>, EOSDT <date>,
#> #   EOSDY <int>, DCSREAS <fct>, DTHDT <date>, LSTALVDT <date>,
#> #   study_duration_secs <dbl>

# RelationalData ----------------
library(random.cdisc.data)
adsl <- cdisc_dataset(dataname = "ADSL", # RelationalDataset
                      data = radsl(cached = TRUE),
                      code = "library(random.cdisc.data)\nADSL <- radsl(cached = TRUE)")

adtte <- cdisc_dataset(dataname = "ADTTE", # RelationalDataset
                       data = radtte(cached = TRUE),
                       code = "library(random.cdisc.data)\nADTTE <- radtte(cached = TRUE)")

rd <- teal:::RelationalData$new(adsl, adtte)
get_raw_data(rd)
#> $ADSL
#> # A tibble: 400 x 33
#>    STUDYID USUBJID SUBJID SITEID   AGE SEX   RACE  COUNTRY INVID INVNAM ARM  
#>    <chr>   <chr>   <chr>  <chr>  <int> <fct> <fct> <fct>   <chr> <chr>  <fct>
#>  1 AB12345 AB1234… id-128 CHN-3     32 M     ASIAN CHN     INV … Dr. C… A: D…
#>  2 AB12345 AB1234… id-262 CHN-15    35 M     BLAC… CHN     INV … Dr. C… C: C…
#>  3 AB12345 AB1234… id-378 RUS-3     30 F     ASIAN RUS     INV … Dr. R… C: C…
#>  4 AB12345 AB1234… id-220 CHN-11    26 F     ASIAN CHN     INV … Dr. C… B: P…
#>  5 AB12345 AB1234… id-267 CHN-7     40 M     ASIAN CHN     INV … Dr. C… B: P…
#>  6 AB12345 AB1234… id-201 CHN-15    49 M     ASIAN CHN     INV … Dr. C… C: C…
#>  7 AB12345 AB1234… id-45  USA-1     34 F     ASIAN USA     INV … Dr. U… A: D…
#>  8 AB12345 AB1234… id-261 USA-1     32 F     ASIAN USA     INV … Dr. U… B: P…
#>  9 AB12345 AB1234… id-173 NGA-11    24 F     BLAC… NGA     INV … Dr. N… C: C…
#> 10 AB12345 AB1234… id-307 CHN-1     24 M     ASIAN CHN     INV … Dr. C… B: P…
#> # … with 390 more rows, and 22 more variables: ARMCD <fct>, ACTARM <fct>,
#> #   ACTARMCD <fct>, REGION1 <fct>, STRATA1 <fct>, STRATA2 <fct>, BMRKR1 <dbl>,
#> #   BMRKR2 <fct>, ITTFL <fct>, SAFFL <fct>, BMEASIFL <fct>, BEP01FL <fct>,
#> #   RANDDT <date>, TRTSDTM <dttm>, TRTEDTM <dttm>, EOSSTT <fct>, EOSDT <date>,
#> #   EOSDY <int>, DCSREAS <fct>, DTHDT <date>, LSTALVDT <date>,
#> #   study_duration_secs <dbl>
#> 
#> $ADTTE
#> # A tibble: 1,200 x 44
#>    STUDYID USUBJID SUBJID SITEID   AGE SEX   RACE  COUNTRY INVID INVNAM ARM  
#>    <chr>   <chr>   <chr>  <chr>  <int> <fct> <fct> <fct>   <chr> <chr>  <fct>
#>  1 AB12345 AB1234… id-105 BRA-1     38 M     BLAC… BRA     INV … Dr. B… A: D…
#>  2 AB12345 AB1234… id-105 BRA-1     38 M     BLAC… BRA     INV … Dr. B… A: D…
#>  3 AB12345 AB1234… id-105 BRA-1     38 M     BLAC… BRA     INV … Dr. B… A: D…
#>  4 AB12345 AB1234… id-134 BRA-1     47 M     WHITE BRA     INV … Dr. B… A: D…
#>  5 AB12345 AB1234… id-134 BRA-1     47 M     WHITE BRA     INV … Dr. B… A: D…
#>  6 AB12345 AB1234… id-134 BRA-1     47 M     WHITE BRA     INV … Dr. B… A: D…
#>  7 AB12345 AB1234… id-141 BRA-1     35 F     WHITE BRA     INV … Dr. B… C: C…
#>  8 AB12345 AB1234… id-141 BRA-1     35 F     WHITE BRA     INV … Dr. B… C: C…
#>  9 AB12345 AB1234… id-141 BRA-1     35 F     WHITE BRA     INV … Dr. B… C: C…
#> 10 AB12345 AB1234… id-236 BRA-1     32 M     BLAC… BRA     INV … Dr. B… B: P…
#> # … with 1,190 more rows, and 33 more variables: ARMCD <fct>, ACTARM <fct>,
#> #   ACTARMCD <fct>, REGION1 <fct>, STRATA1 <fct>, STRATA2 <fct>, BMRKR1 <dbl>,
#> #   BMRKR2 <fct>, ITTFL <fct>, SAFFL <fct>, BMEASIFL <fct>, BEP01FL <fct>,
#> #   RANDDT <date>, TRTSDTM <dttm>, TRTEDTM <dttm>, EOSSTT <fct>, EOSDT <date>,
#> #   EOSDY <int>, DCSREAS <fct>, DTHDT <date>, LSTALVDT <date>,
#> #   study_duration_secs <dbl>, ASEQ <int>, TTESEQ <int>, PARAM <fct>,
#> #   PARAMCD <fct>, AVAL <dbl>, AVALU <fct>, ADTM <dttm>, ADY <int>, CNSR <int>,
#> #   EVNTDESC <chr>, CNSDTDSC <chr>
…
