…
#>     .keys: keys
#>     .ncol: 33
#>     .nrow: 400
#>     .raw_data: tbl_df, tbl, data.frame
#>     .row_labels: 
#>     .rownames: 1 2 3 4 5 6 7 8 9 10 11 12 13 14 15 16 17 18 19 20 21 22 ...
#>     code: CodeClass, R6
#>     dataname: ADSL
#>     dataset_label: 
#>     execute_code: function (code, vars = list()) 
#>     get_class_colnames: function (class_type = "character", include_factors = FALSE) 
#>     set_dataname: function (dataname) 
#>     vars: list
x$get_raw_data()
#> # A tibble: 400 x 33
#>    STUDYID USUBJID SUBJID SITEID   AGE SEX   RACE  COUNTRY INVID INVNAM ARM  
#>    <chr>   <chr>   <chr>  <chr>  <int> <fct> <fct> <fct>   <chr> <chr>  <fct>
#>  1 AB12345 AB1234… id-128 CHN-3     32 M     ASIAN CHN     INV … Dr. C… A: D…
#>  2 AB12345 AB1234… id-262 CHN-15    35 M     BLAC… CHN     INV … Dr. C… C: C…
#>  3 AB12345 AB1234… id-378 RUS-3     30 F     ASIAN RUS     INV … Dr. R… C: C…
#>  4 AB12345 AB1234… id-220 CHN-11    26 F     ASIAN CHN     INV … Dr. C… B: P…
#>  5 AB12345 AB1234… id-267 CHN-7     40 M     ASIAN CHN     INV … Dr. C… B: P…
#>  6 AB12345 AB1234… id-201 CHN-15    49 M     ASIAN CHN     INV … Dr. C… C: C…
#>  7 AB12345 AB1234… id-45  USA-1     34 F     ASIAN USA     INV … Dr. U… A: D…
#>  8 AB12345 AB1234… id-261 USA-1     32 F     ASIAN USA     INV … Dr. U… B: P…
#>  9 AB12345 AB1234… id-173 NGA-11    24 F     BLAC… NGA     INV … Dr. N… C: C…
#> 10 AB12345 AB1234… id-307 CHN-1     24 M     ASIAN CHN     INV … Dr. C… B: P…
#> # … with 390 more rows, and 22 more variables: ARMCD <fct>, ACTARM <fct>,
#> #   ACTARMCD <fct>, REGION1 <fct>, STRATA1 <fct>, STRATA2 <fct>, BMRKR1 <dbl>,
#> #   BMRKR2 <fct>, ITTFL <fct>, SAFFL <fct>, BMEASIFL <fct>, BEP01FL <fct>,
#> #   RANDDT <date>, TRTSDTM <dttm>, TRTEDTM <dttm>, EOSSTT <fct>, EOSDT <date>,
#> #   EOSDY <int>, DCSREAS <fct>, DTHDT <date>, LSTALVDT <date>,
#> #   study_duration_secs <dbl>
…
