Class to encapsulate relational filtered datasets with its parents. — CDISCFilteredData • teal
…
#> $filter
#> ADSL_FILTERED <- ADSL
#> 
#> $filter
#> ADTTE_FILTERED_ALONE <- ADTTE
#> 
#> [[2]]
#> ADTTE_FILTERED <- dplyr::inner_join(x = ADTTE_FILTERED_ALONE, 
#>     y = ADSL_FILTERED[, c("STUDYID", "USUBJID"), drop = FALSE], 
#>     by = c("STUDYID", "USUBJID"))
#> 
#> # A tibble: 400 × 38
#>    STUDYID USUBJID  SUBJID SITEID   AGE SEX   RACE    COUNTRY DTHFL INVID INVNAM
#>    <chr>   <chr>    <chr>  <chr>  <int> <fct> <fct>   <fct>   <fct> <chr> <chr> 
#>  1 AB12345 AB12345… id-128 CHN-3     32 M     ASIAN   CHN     N     INV … Dr. C…
#>  2 AB12345 AB12345… id-262 CHN-15    35 M     BLACK … CHN     N     INV … Dr. C…
#>  3 AB12345 AB12345… id-378 RUS-3     30 F     ASIAN   RUS     N     INV … Dr. R…
#>  4 AB12345 AB12345… id-220 CHN-11    26 F     ASIAN   CHN     N     INV … Dr. C…
#>  5 AB12345 AB12345… id-267 CHN-7     40 M     ASIAN   CHN     N     INV … Dr. C…
#>  6 AB12345 AB12345… id-201 CHN-15    49 M     ASIAN   CHN     N     INV … Dr. C…
#>  7 AB12345 AB12345… id-45  USA-1     34 F     ASIAN   USA     N     INV … Dr. U…
#>  8 AB12345 AB12345… id-261 USA-1     32 F     ASIAN   USA     N     INV … Dr. U…
#>  9 AB12345 AB12345… id-173 NGA-11    24 F     BLACK … NGA     N     INV … Dr. N…
#> 10 AB12345 AB12345… id-307 CHN-1     24 M     ASIAN   CHN     N     INV … Dr. C…
#> # … with 390 more rows, and 27 more variables: ARM <fct>, ARMCD <fct>,
#> #   ACTARM <fct>, ACTARMCD <fct>, REGION1 <fct>, STRATA1 <fct>, STRATA2 <fct>,
#> #   BMRKR1 <dbl>, BMRKR2 <fct>, ITTFL <fct>, SAFFL <fct>, BMEASIFL <fct>,
#> #   BEP01FL <fct>, RANDDT <date>, TRTSDTM <dttm>, TRTEDTM <dttm>, EOSSTT <fct>,
#> #   EOSDT <date>, EOSDY <int>, DCSREAS <fct>, DTHDT <date>, DTHCAUS <fct>,
#> #   DTHCAT <fct>, LDDTHELD <int>, LDDTHGR1 <fct>, LSTALVDT <date>,
#> #   study_duration_secs <dbl>
…
