Retrieve raw data — get_raw_data • teal
…
    Value

    data.frame with the raw data inserted into the R6 objects. In case of
TealDataAbstract, list of data.frame can be returned
if user doesn't specify dataname - (get_raw_data from all datasets).

    Examples

# TealDataset ---------
library(scda)
ADSL <- synthetic_cdisc_data("latest")$adsl

x <- dataset(dataname = "ADSL", x = ADSL)
get_raw_data(x)
#> # A tibble: 400 × 39
#>    STUDYID USUBJID    SUBJID SITEID   AGE SEX   RACE  COUNTRY DTHFL INVID INVNAM
#>    <chr>   <chr>      <chr>  <chr>  <int> <fct> <fct> <fct>   <fct> <chr> <chr> 
#>  1 AB12345 AB12345-C… id-128 CHN-3     32 M     ASIAN CHN     N     INV … Dr. C…
#>  2 AB12345 AB12345-C… id-262 CHN-15    35 M     BLAC… CHN     N     INV … Dr. C…
#>  3 AB12345 AB12345-R… id-378 RUS-3     30 F     ASIAN RUS     N     INV … Dr. R…
#>  4 AB12345 AB12345-C… id-220 CHN-11    26 F     ASIAN CHN     N     INV … Dr. C…
#>  5 AB12345 AB12345-C… id-267 CHN-7     40 M     ASIAN CHN     N     INV … Dr. C…
#>  6 AB12345 AB12345-C… id-201 CHN-15    49 M     ASIAN CHN     N     INV … Dr. C…
#>  7 AB12345 AB12345-U… id-45  USA-1     34 F     ASIAN USA     N     INV … Dr. U…
#>  8 AB12345 AB12345-U… id-261 USA-1     32 F     ASIAN USA     N     INV … Dr. U…
#>  9 AB12345 AB12345-N… id-173 NGA-11    24 F     BLAC… NGA     N     INV … Dr. N…
#> 10 AB12345 AB12345-C… id-307 CHN-1     24 M     ASIAN CHN     N     INV … Dr. C…
#> # … with 390 more rows, and 28 more variables: ARM <fct>, ARMCD <fct>,
#> #   ACTARM <fct>, ACTARMCD <fct>, REGION1 <fct>, STRATA1 <fct>, STRATA2 <fct>,
#> #   BMRKR1 <dbl>, BMRKR2 <fct>, ITTFL <fct>, SAFFL <fct>, BMEASIFL <fct>,
#> #   BEP01FL <fct>, RANDDT <date>, TRTSDTM <dttm>, TRTEDTM <dttm>, EOSSTT <fct>,
#> #   EOTSTT <fct>, EOSDT <date>, EOSDY <int>, DCSREAS <fct>, DTHDT <date>,
#> #   DTHCAUS <fct>, DTHCAT <fct>, LDDTHELD <int>, LDDTHGR1 <fct>,
#> #   LSTALVDT <date>, study_duration_secs <dbl>

# TealDatasetConnector ---------
library(scda)
pull_fun_adsl <- callable_function(
  function() {
    synthetic_cdisc_data("latest")$adsl
  }
)
dc <- dataset_connector("ADSL", pull_fun_adsl)
load_dataset(dc)
get_raw_data(dc)
#> # A tibble: 400 × 39
#>    STUDYID USUBJID    SUBJID SITEID   AGE SEX   RACE  COUNTRY DTHFL INVID INVNAM
#>    <chr>   <chr>      <chr>  <chr>  <int> <fct> <fct> <fct>   <fct> <chr> <chr> 
#>  1 AB12345 AB12345-C… id-128 CHN-3     32 M     ASIAN CHN     N     INV … Dr. C…
#>  2 AB12345 AB12345-C… id-262 CHN-15    35 M     BLAC… CHN     N     INV … Dr. C…
#>  3 AB12345 AB12345-R… id-378 RUS-3     30 F     ASIAN RUS     N     INV … Dr. R…
#>  4 AB12345 AB12345-C… id-220 CHN-11    26 F     ASIAN CHN     N     INV … Dr. C…
#>  5 AB12345 AB12345-C… id-267 CHN-7     40 M     ASIAN CHN     N     INV … Dr. C…
#>  6 AB12345 AB12345-C… id-201 CHN-15    49 M     ASIAN CHN     N     INV … Dr. C…
#>  7 AB12345 AB12345-U… id-45  USA-1     34 F     ASIAN USA     N     INV … Dr. U…
#>  8 AB12345 AB12345-U… id-261 USA-1     32 F     ASIAN USA     N     INV … Dr. U…
#>  9 AB12345 AB12345-N… id-173 NGA-11    24 F     BLAC… NGA     N     INV … Dr. N…
#> 10 AB12345 AB12345-C… id-307 CHN-1     24 M     ASIAN CHN     N     INV … Dr. C…
#> # … with 390 more rows, and 28 more variables: ARM <fct>, ARMCD <fct>,
#> #   ACTARM <fct>, ACTARMCD <fct>, REGION1 <fct>, STRATA1 <fct>, STRATA2 <fct>,
#> #   BMRKR1 <dbl>, BMRKR2 <fct>, ITTFL <fct>, SAFFL <fct>, BMEASIFL <fct>,
#> #   BEP01FL <fct>, RANDDT <date>, TRTSDTM <dttm>, TRTEDTM <dttm>, EOSSTT <fct>,
#> #   EOTSTT <fct>, EOSDT <date>, EOSDY <int>, DCSREAS <fct>, DTHDT <date>,
#> #   DTHCAUS <fct>, DTHCAT <fct>, LDDTHELD <int>, LDDTHGR1 <fct>,
#> #   LSTALVDT <date>, study_duration_secs <dbl>
…
adtte <- cdisc_dataset(
  dataname = "ADTTE",
  x = synthetic_cdisc_data("latest")$adtte,
  code = "library(scda)\nADTTE <- synthetic_cdisc_data(\"latest\")$adtte"
)

rd <- teal:::TealData$new(adsl, adtte)
get_raw_data(rd)
#> $ADSL
#> # A tibble: 400 × 39
#>    STUDYID USUBJID    SUBJID SITEID   AGE SEX   RACE  COUNTRY DTHFL INVID INVNAM
#>    <chr>   <chr>      <chr>  <chr>  <int> <fct> <fct> <fct>   <fct> <chr> <chr> 
#>  1 AB12345 AB12345-C… id-128 CHN-3     32 M     ASIAN CHN     N     INV … Dr. C…
#>  2 AB12345 AB12345-C… id-262 CHN-15    35 M     BLAC… CHN     N     INV … Dr. C…
#>  3 AB12345 AB12345-R… id-378 RUS-3     30 F     ASIAN RUS     N     INV … Dr. R…
#>  4 AB12345 AB12345-C… id-220 CHN-11    26 F     ASIAN CHN     N     INV … Dr. C…
#>  5 AB12345 AB12345-C… id-267 CHN-7     40 M     ASIAN CHN     N     INV … Dr. C…
#>  6 AB12345 AB12345-C… id-201 CHN-15    49 M     ASIAN CHN     N     INV … Dr. C…
#>  7 AB12345 AB12345-U… id-45  USA-1     34 F     ASIAN USA     N     INV … Dr. U…
#>  8 AB12345 AB12345-U… id-261 USA-1     32 F     ASIAN USA     N     INV … Dr. U…
#>  9 AB12345 AB12345-N… id-173 NGA-11    24 F     BLAC… NGA     N     INV … Dr. N…
#> 10 AB12345 AB12345-C… id-307 CHN-1     24 M     ASIAN CHN     N     INV … Dr. C…
#> # … with 390 more rows, and 28 more variables: ARM <fct>, ARMCD <fct>,
#> #   ACTARM <fct>, ACTARMCD <fct>, REGION1 <fct>, STRATA1 <fct>, STRATA2 <fct>,
#> #   BMRKR1 <dbl>, BMRKR2 <fct>, ITTFL <fct>, SAFFL <fct>, BMEASIFL <fct>,
#> #   BEP01FL <fct>, RANDDT <date>, TRTSDTM <dttm>, TRTEDTM <dttm>, EOSSTT <fct>,
#> #   EOTSTT <fct>, EOSDT <date>, EOSDY <int>, DCSREAS <fct>, DTHDT <date>,
#> #   DTHCAUS <fct>, DTHCAT <fct>, LDDTHELD <int>, LDDTHGR1 <fct>,
#> #   LSTALVDT <date>, study_duration_secs <dbl>
#> 
#> $ADTTE
#> # A tibble: 1,600 × 50
#>    STUDYID USUBJID    SUBJID SITEID   AGE SEX   RACE  COUNTRY DTHFL INVID INVNAM
#>    <chr>   <chr>      <chr>  <chr>  <int> <fct> <fct> <fct>   <fct> <chr> <chr> 
#>  1 AB12345 AB12345-B… id-105 BRA-1     38 M     BLAC… BRA     N     INV … Dr. B…
#>  2 AB12345 AB12345-B… id-105 BRA-1     38 M     BLAC… BRA     N     INV … Dr. B…
#>  3 AB12345 AB12345-B… id-105 BRA-1     38 M     BLAC… BRA     N     INV … Dr. B…
#>  4 AB12345 AB12345-B… id-105 BRA-1     38 M     BLAC… BRA     N     INV … Dr. B…
#>  5 AB12345 AB12345-B… id-134 BRA-1     47 M     WHITE BRA     N     INV … Dr. B…
#>  6 AB12345 AB12345-B… id-134 BRA-1     47 M     WHITE BRA     N     INV … Dr. B…
#>  7 AB12345 AB12345-B… id-134 BRA-1     47 M     WHITE BRA     N     INV … Dr. B…
#>  8 AB12345 AB12345-B… id-134 BRA-1     47 M     WHITE BRA     N     INV … Dr. B…
#>  9 AB12345 AB12345-B… id-141 BRA-1     35 F     WHITE BRA     N     INV … Dr. B…
#> 10 AB12345 AB12345-B… id-141 BRA-1     35 F     WHITE BRA     N     INV … Dr. B…
#> # … with 1,590 more rows, and 39 more variables: ARM <fct>, ARMCD <fct>,
#> #   ACTARM <fct>, ACTARMCD <fct>, REGION1 <fct>, STRATA1 <fct>, STRATA2 <fct>,
#> #   BMRKR1 <dbl>, BMRKR2 <fct>, ITTFL <fct>, SAFFL <fct>, BMEASIFL <fct>,
#> #   BEP01FL <fct>, RANDDT <date>, TRTSDTM <dttm>, TRTEDTM <dttm>, EOSSTT <fct>,
#> #   EOTSTT <fct>, EOSDT <date>, EOSDY <int>, DCSREAS <fct>, DTHDT <date>,
#> #   DTHCAUS <fct>, DTHCAT <fct>, LDDTHELD <int>, LDDTHGR1 <fct>,
#> #   LSTALVDT <date>, study_duration_secs <dbl>, ASEQ <int>, TTESEQ <int>, …
…
