Data input for teal app — dataset • teal
…
    a dataset with connected metadata

    Examples

library(random.cdisc.data)

ADSL <-  suppressWarnings(radsl(N = 600, seed = 123))

dataset("ADSL", ADSL)
#> $dataname
#> [1] "ADSL"
#> 
#> $data
#> # A tibble: 600 x 18
#>    STUDYID USUBJID SUBJID SITEID   AGE SEX   RACE  COUNTRY ARM   ARMCD ACTARM
#>    <chr>   <chr>   <chr>  <chr>  <dbl> <fct> <fct> <fct>   <fct> <fct> <fct> 
#>  1 AB12345 AB1234… id-1   CHN-11    61 M     ASIAN CHN     A: D… ARM A A: Dr…
#>  2 AB12345 AB1234… id-2   NGA-13    39 M     BLAC… NGA     C: C… ARM C C: Co…
#>  3 AB12345 AB1234… id-3   CHN-11    39 F     ASIAN CHN     B: P… ARM B B: Pl…
#>  4 AB12345 AB1234… id-4   RUS-1     20 M     ASIAN RUS     B: P… ARM B B: Pl…
#>  5 AB12345 AB1234… id-5   JPN-11    55 M     ASIAN JPN     A: D… ARM A A: Dr…
#>  6 AB12345 AB1234… id-6   CHN-15    35 F     WHITE CHN     B: P… ARM B B: Pl…
#>  7 AB12345 AB1234… id-7   USA-11    26 F     WHITE USA     C: C… ARM C C: Co…
#>  8 AB12345 AB1234… id-8   RUS-5     20 M     BLAC… RUS     B: P… ARM B B: Pl…
#>  9 AB12345 AB1234… id-9   USA-1     34 M     AMER… USA     C: C… ARM C C: Co…
#> 10 AB12345 AB1234… id-10  CHN-1     23 F     ASIAN CHN     C: C… ARM C C: Co…
#> # … with 590 more rows, and 7 more variables: ACTARMCD <fct>, STRATA1 <fct>,
#> #   STRATA2 <fct>, BMRKR1 <dbl>, BMRKR2 <fct>, ITTFL <chr>, BEP01FL <fct>
…
