Delayed Data Loading • teal
…
Initially, adsl_conn doesn’t contain any data, but they can be loaded using load_dataset() function. Before data loading, adsl_conn contains reproducible code which is also an execution code to pull the data.

# execution/reproducible code
get_code(adsl_conn)
#> [1] "ADSL <- synthetic_cdisc_dataset(dataset_name = \"adsl\", name = \"latest\")"

# pull data
load_dataset(adsl_conn)

# get raw data
get_raw_data(adsl_conn)
#> # A tibble: 400 × 39
#>    STUDYID USUBJID  SUBJID SITEID   AGE SEX   RACE    COUNTRY DTHFL INVID INVNAM
#>    <chr>   <chr>    <chr>  <chr>  <int> <fct> <fct>   <fct>   <fct> <chr> <chr> 
#>  1 AB12345 AB12345… id-128 CHN-3     32 M     ASIAN   CHN     N     INV … Dr. C…
#>  2 AB12345 AB12345… id-262 CHN-15    35 M     BLACK … CHN     N     INV … Dr. C…
#>  3 AB12345 AB12345… id-378 RUS-3     30 F     ASIAN   RUS     N     INV … Dr. R…
#>  4 AB12345 AB12345… id-220 CHN-11    26 F     ASIAN   CHN     N     INV … Dr. C…
#>  5 AB12345 AB12345… id-267 CHN-7     40 M     ASIAN   CHN     N     INV … Dr. C…
#>  6 AB12345 AB12345… id-201 CHN-15    49 M     ASIAN   CHN     N     INV … Dr. C…
#>  7 AB12345 AB12345… id-45  USA-1     34 F     ASIAN   USA     N     INV … Dr. U…
#>  8 AB12345 AB12345… id-261 USA-1     32 F     ASIAN   USA     N     INV … Dr. U…
#>  9 AB12345 AB12345… id-173 NGA-11    24 F     BLACK … NGA     N     INV … Dr. N…
#> 10 AB12345 AB12345… id-307 CHN-1     24 M     ASIAN   CHN     N     INV … Dr. C…
#> # … with 390 more rows, and 28 more variables: ARM <fct>, ARMCD <fct>,
#> #   ACTARM <fct>, ACTARMCD <fct>, REGION1 <fct>, STRATA1 <fct>, STRATA2 <fct>,
#> #   BMRKR1 <dbl>, BMRKR2 <fct>, ITTFL <fct>, SAFFL <fct>, BMEASIFL <fct>,
#> #   BEP01FL <fct>, RANDDT <date>, TRTSDTM <dttm>, TRTEDTM <dttm>, EOSSTT <fct>,
#> #   EOTSTT <fct>, EOSDT <date>, EOSDY <int>, DCSREAS <fct>, DTHDT <date>,
#> #   DTHCAUS <fct>, DTHCAT <fct>, LDDTHELD <int>, LDDTHGR1 <fct>,
#> #   LSTALVDT <date>, study_duration_secs <dbl>
…
